{"exported_at":"2026-04-02T11:59:01.812Z","blog":"goodtransgirl.tumblr.com","page":6,"total_pages":6,"total_rows":1505,"posts":[{"id":"805828662336339968","post_url":"https://www.tumblr.com/blog/view/goodtransgirl/805828662336339968","notes":3159,"npd":null,"is_reblog":true,"delta":13},{"id":"805825552865968128","post_url":"https://www.tumblr.com/blog/view/goodtransgirl/805825552865968128","notes":9680,"npd":null,"is_reblog":true,"delta":3},{"id":"805824101271928832","post_url":"https://www.tumblr.com/blog/view/goodtransgirl/805824101271928832","notes":17848,"npd":null,"is_reblog":true,"delta":102},{"id":"805824088622940160","post_url":"https://www.tumblr.com/blog/view/goodtransgirl/805824088622940160","notes":1989,"npd":null,"is_reblog":true,"delta":0},{"id":"805824045421559808","post_url":"https://www.tumblr.com/blog/view/goodtransgirl/805824045421559808","notes":13469,"npd":null,"is_reblog":true,"delta":299}]}