{"exported_at":"2026-04-03T00:00:57.696Z","blog":"goodtransgirl.tumblr.com","page":6,"total_pages":6,"total_rows":1517,"posts":[{"id":"805854537793536000","post_url":"https://www.tumblr.com/blog/view/goodtransgirl/805854537793536000","notes":11138,"npd":null,"is_reblog":true,"delta":11},{"id":"805851435147362304","post_url":"https://www.tumblr.com/blog/view/goodtransgirl/805851435147362304","notes":22425,"npd":null,"is_reblog":true,"delta":547},{"id":"805848960403128320","post_url":"https://www.tumblr.com/blog/view/goodtransgirl/805848960403128320","notes":8059,"npd":null,"is_reblog":true,"delta":6},{"id":"805845210591592448","post_url":"https://www.tumblr.com/blog/view/goodtransgirl/805845210591592448","notes":31034,"npd":null,"is_reblog":true,"delta":456},{"id":"805845099195006976","post_url":"https://www.tumblr.com/blog/view/goodtransgirl/805845099195006976","notes":494,"npd":null,"is_reblog":true,"delta":0},{"id":"805845019643854848","post_url":"https://www.tumblr.com/blog/view/goodtransgirl/805845019643854848","notes":40369,"npd":null,"is_reblog":true,"delta":400},{"id":"805844960777781248","post_url":"https://www.tumblr.com/blog/view/goodtransgirl/805844960777781248","notes":10898,"npd":null,"is_reblog":true,"delta":21},{"id":"805832634390413312","post_url":"https://www.tumblr.com/blog/view/goodtransgirl/805832634390413312","notes":7423,"npd":null,"is_reblog":true,"delta":7},{"id":"805829330894798848","post_url":"https://www.tumblr.com/blog/view/goodtransgirl/805829330894798848","notes":2193,"npd":null,"is_reblog":true,"delta":2},{"id":"805829083517927424","post_url":"https://www.tumblr.com/blog/view/goodtransgirl/805829083517927424","notes":5232,"npd":null,"is_reblog":true,"delta":2},{"id":"805828996356030464","post_url":"https://www.tumblr.com/blog/view/goodtransgirl/805828996356030464","notes":59919,"npd":null,"is_reblog":true,"delta":325},{"id":"805828926019665920","post_url":"https://www.tumblr.com/blog/view/goodtransgirl/805828926019665920","notes":552,"npd":null,"is_reblog":true,"delta":0},{"id":"805828662336339968","post_url":"https://www.tumblr.com/blog/view/goodtransgirl/805828662336339968","notes":3160,"npd":null,"is_reblog":true,"delta":14},{"id":"805825552865968128","post_url":"https://www.tumblr.com/blog/view/goodtransgirl/805825552865968128","notes":9680,"npd":null,"is_reblog":true,"delta":3},{"id":"805824101271928832","post_url":"https://www.tumblr.com/blog/view/goodtransgirl/805824101271928832","notes":17879,"npd":null,"is_reblog":true,"delta":133},{"id":"805824088622940160","post_url":"https://www.tumblr.com/blog/view/goodtransgirl/805824088622940160","notes":1989,"npd":null,"is_reblog":true,"delta":0},{"id":"805824045421559808","post_url":"https://www.tumblr.com/blog/view/goodtransgirl/805824045421559808","notes":13479,"npd":null,"is_reblog":true,"delta":309}]}