{"exported_at":"2026-04-01T21:52:58.082Z","blog":"goodtransgirl.tumblr.com","page":6,"total_pages":6,"total_rows":1502,"posts":[{"id":"805824088622940160","post_url":"https://www.tumblr.com/blog/view/goodtransgirl/805824088622940160","notes":1989,"npd":null,"is_reblog":true,"delta":0},{"id":"805824045421559808","post_url":"https://www.tumblr.com/blog/view/goodtransgirl/805824045421559808","notes":13454,"npd":null,"is_reblog":true,"delta":284}]}