{"exported_at":"2026-04-02T09:52:55.741Z","blog":"goodtransgirl.tumblr.com","page":6,"total_pages":6,"total_rows":1503,"posts":[{"id":"805824101271928832","post_url":"https://www.tumblr.com/blog/view/goodtransgirl/805824101271928832","notes":17838,"npd":null,"is_reblog":true,"delta":92},{"id":"805824088622940160","post_url":"https://www.tumblr.com/blog/view/goodtransgirl/805824088622940160","notes":1989,"npd":null,"is_reblog":true,"delta":0},{"id":"805824045421559808","post_url":"https://www.tumblr.com/blog/view/goodtransgirl/805824045421559808","notes":13469,"npd":null,"is_reblog":true,"delta":299}]}