{"exported_at":"2026-04-05T11:00:54.941Z","blog":"goodtransgirl.tumblr.com","page":6,"total_pages":6,"total_rows":1576,"posts":[{"id":"806349995335958528","post_url":"https://www.tumblr.com/blog/view/goodtransgirl/806349995335958528","notes":369,"npd":0,"is_reblog":true,"added_content":false,"tags":[],"delta":0},{"id":"806341690479804416","post_url":"https://www.tumblr.com/blog/view/goodtransgirl/806341690479804416","notes":1518,"npd":0.38,"is_reblog":true,"added_content":false,"tags":[],"delta":3},{"id":"806333501779705856","post_url":"https://www.tumblr.com/blog/view/goodtransgirl/806333501779705856","notes":2717,"npd":0.38,"is_reblog":true,"added_content":false,"tags":[],"delta":3},{"id":"806317039014805504","post_url":"https://www.tumblr.com/blog/view/goodtransgirl/806317039014805504","notes":194,"npd":0,"is_reblog":true,"added_content":false,"tags":[],"delta":0},{"id":"806316965521195008","post_url":"https://www.tumblr.com/blog/view/goodtransgirl/806316965521195008","notes":154,"npd":0,"is_reblog":true,"added_content":false,"tags":[],"delta":0},{"id":"806308716010946560","post_url":"https://www.tumblr.com/blog/view/goodtransgirl/806308716010946560","notes":710,"npd":0,"is_reblog":true,"added_content":false,"tags":[],"delta":0},{"id":"806300535830593536","post_url":"https://www.tumblr.com/blog/view/goodtransgirl/806300535830593536","notes":4632,"npd":12.8,"is_reblog":true,"added_content":false,"tags":[],"delta":101},{"id":"806292248318885888","post_url":"https://www.tumblr.com/blog/view/goodtransgirl/806292248318885888","notes":3282,"npd":0.13,"is_reblog":true,"added_content":false,"tags":[],"delta":1},{"id":"806284058101415936","post_url":"https://www.tumblr.com/blog/view/goodtransgirl/806284058101415936","notes":447,"npd":0,"is_reblog":true,"added_content":false,"tags":[],"delta":0},{"id":"806275869075177472","post_url":"https://www.tumblr.com/blog/view/goodtransgirl/806275869075177472","notes":5894,"npd":0.25,"is_reblog":true,"added_content":false,"tags":[],"delta":2},{"id":"806267570399444993","post_url":"https://www.tumblr.com/blog/view/goodtransgirl/806267570399444993","notes":15479,"npd":0.51,"is_reblog":true,"added_content":false,"tags":[],"delta":4},{"id":"806259389957865472","post_url":"https://www.tumblr.com/blog/view/goodtransgirl/806259389957865472","notes":223,"npd":0,"is_reblog":true,"added_content":false,"tags":[],"delta":0},{"id":"806251088246358016","post_url":"https://www.tumblr.com/blog/view/goodtransgirl/806251088246358016","notes":186542,"npd":2.03,"is_reblog":true,"added_content":false,"tags":[],"delta":16},{"id":"806242903091527680","post_url":"https://www.tumblr.com/blog/view/goodtransgirl/806242903091527680","notes":4043,"npd":21.04,"is_reblog":true,"added_content":false,"tags":[],"delta":166},{"id":"806226426938441728","post_url":"https://www.tumblr.com/blog/view/goodtransgirl/806226426938441728","notes":1261,"npd":4.06,"is_reblog":true,"added_content":false,"tags":[],"delta":32},{"id":"806218120350089217","post_url":"https://www.tumblr.com/blog/view/goodtransgirl/806218120350089217","notes":134957,"npd":527.97,"is_reblog":true,"added_content":false,"tags":[],"delta":4166,"likes":84368,"reblogs":49813,"comments":0},{"id":"806209953753972736","post_url":"https://www.tumblr.com/blog/view/goodtransgirl/806209953753972736","notes":1657,"npd":3.55,"is_reblog":true,"added_content":false,"tags":[],"delta":28},{"id":"806201646452441088","post_url":"https://www.tumblr.com/blog/view/goodtransgirl/806201646452441088","notes":730,"npd":0.13,"is_reblog":true,"added_content":false,"tags":[],"delta":1},{"id":"806201536596279296","post_url":"https://www.tumblr.com/blog/view/goodtransgirl/806201536596279296","notes":690,"npd":0,"is_reblog":true,"added_content":false,"tags":["🥺🥺🥺"],"delta":0},{"id":"806193455857647616","post_url":"https://www.tumblr.com/blog/view/goodtransgirl/806193455857647616","notes":37497,"npd":126.86,"is_reblog":true,"added_content":false,"tags":[],"delta":1001},{"id":"806188298710269952","post_url":"https://www.tumblr.com/blog/view/goodtransgirl/806188298710269952","notes":78104,"npd":1.9,"is_reblog":true,"added_content":false,"tags":[],"delta":15},{"id":"806185282278998016","post_url":"https://www.tumblr.com/blog/view/goodtransgirl/806185282278998016","notes":17433,"npd":5.96,"is_reblog":true,"added_content":false,"tags":[],"delta":47},{"id":"806176977155440640","post_url":"https://www.tumblr.com/blog/view/goodtransgirl/806176977155440640","notes":6320,"npd":0.89,"is_reblog":true,"added_content":false,"tags":[],"delta":7},{"id":"806168794601062401","post_url":"https://www.tumblr.com/blog/view/goodtransgirl/806168794601062401","notes":1511,"npd":0.38,"is_reblog":true,"added_content":false,"tags":[],"delta":3},{"id":"806160492221628416","post_url":"https://www.tumblr.com/blog/view/goodtransgirl/806160492221628416","notes":2909,"npd":0.76,"is_reblog":true,"added_content":false,"tags":[],"delta":6},{"id":"806152328618131456","post_url":"https://www.tumblr.com/blog/view/goodtransgirl/806152328618131456","notes":6874,"npd":5.96,"is_reblog":true,"added_content":false,"tags":[],"delta":47},{"id":"806135824973496321","post_url":"https://www.tumblr.com/blog/view/goodtransgirl/806135824973496321","notes":241020,"npd":105.69,"is_reblog":true,"added_content":false,"tags":[],"delta":834},{"id":"806127517145694208","post_url":"https://www.tumblr.com/blog/view/goodtransgirl/806127517145694208","notes":14062,"npd":33.84,"is_reblog":true,"added_content":false,"tags":[],"delta":267},{"id":"806119350302048256","post_url":"https://www.tumblr.com/blog/view/goodtransgirl/806119350302048256","notes":1841,"npd":0.51,"is_reblog":true,"added_content":false,"tags":[],"delta":4},{"id":"806102862444789760","post_url":"https://www.tumblr.com/blog/view/goodtransgirl/806102862444789760","notes":18439,"npd":283.75,"is_reblog":true,"added_content":false,"tags":[],"delta":2239},{"id":"806094677603385344","post_url":"https://www.tumblr.com/blog/view/goodtransgirl/806094677603385344","notes":534,"npd":0,"is_reblog":true,"added_content":false,"tags":[],"delta":0},{"id":"806086372679139328","post_url":"https://www.tumblr.com/blog/view/goodtransgirl/806086372679139328","notes":80529,"npd":51.83,"is_reblog":true,"added_content":false,"tags":[],"delta":409},{"id":"806078199701389312","post_url":"https://www.tumblr.com/blog/view/goodtransgirl/806078199701389312","notes":33189,"npd":1.14,"is_reblog":true,"added_content":false,"tags":[],"delta":9},{"id":"806069893127618561","post_url":"https://www.tumblr.com/blog/view/goodtransgirl/806069893127618561","notes":1305,"npd":0,"is_reblog":true,"added_content":false,"tags":[],"delta":0},{"id":"806061723535769600","post_url":"https://www.tumblr.com/blog/view/goodtransgirl/806061723535769600","notes":9653,"npd":5.2,"is_reblog":true,"added_content":false,"tags":[],"delta":41},{"id":"806045246270193664","post_url":"https://www.tumblr.com/blog/view/goodtransgirl/806045246270193664","notes":21346,"npd":9.76,"is_reblog":true,"added_content":false,"tags":[],"delta":77},{"id":"806036920204410881","post_url":"https://www.tumblr.com/blog/view/goodtransgirl/806036920204410881","notes":592,"npd":0,"is_reblog":true,"added_content":false,"tags":[],"delta":0},{"id":"806028766171267072","post_url":"https://www.tumblr.com/blog/view/goodtransgirl/806028766171267072","notes":22173,"npd":20.28,"is_reblog":true,"added_content":false,"tags":[],"delta":160},{"id":"806020567881891840","post_url":"https://www.tumblr.com/blog/view/goodtransgirl/806020567881891840","notes":6615,"npd":10.01,"is_reblog":true,"added_content":false,"tags":[],"delta":79},{"id":"806012265333669888","post_url":"https://www.tumblr.com/blog/view/goodtransgirl/806012265333669888","notes":419,"npd":0.13,"is_reblog":true,"added_content":false,"tags":[],"delta":1},{"id":"806004087200022528","post_url":"https://www.tumblr.com/blog/view/goodtransgirl/806004087200022528","notes":7302,"npd":5.96,"is_reblog":true,"added_content":false,"tags":[],"delta":47},{"id":"805995808706150400","post_url":"https://www.tumblr.com/blog/view/goodtransgirl/805995808706150400","notes":3216,"npd":7.35,"is_reblog":true,"added_content":false,"tags":[],"delta":58},{"id":"805987606734176256","post_url":"https://www.tumblr.com/blog/view/goodtransgirl/805987606734176256","notes":1711,"npd":0,"is_reblog":true,"added_content":false,"tags":[],"delta":0},{"id":"805979299285975040","post_url":"https://www.tumblr.com/blog/view/goodtransgirl/805979299285975040","notes":3277,"npd":3.04,"is_reblog":true,"added_content":false,"tags":[],"delta":24},{"id":"805971129980403712","post_url":"https://www.tumblr.com/blog/view/goodtransgirl/805971129980403712","notes":325,"npd":0,"is_reblog":true,"added_content":false,"tags":[],"delta":0},{"id":"805954631432847360","post_url":"https://www.tumblr.com/blog/view/goodtransgirl/805954631432847360","notes":895,"npd":1.01,"is_reblog":true,"added_content":false,"tags":[],"delta":8},{"id":"805946340578328576","post_url":"https://www.tumblr.com/blog/view/goodtransgirl/805946340578328576","notes":3848,"npd":6.72,"is_reblog":true,"added_content":false,"tags":[],"delta":53},{"id":"805938148452564992","post_url":"https://www.tumblr.com/blog/view/goodtransgirl/805938148452564992","notes":33622,"npd":15.59,"is_reblog":true,"added_content":false,"tags":[],"delta":123},{"id":"805929971651690496","post_url":"https://www.tumblr.com/blog/view/goodtransgirl/805929971651690496","notes":812,"npd":0.38,"is_reblog":true,"added_content":false,"tags":[],"delta":3},{"id":"805921661393272833","post_url":"https://www.tumblr.com/blog/view/goodtransgirl/805921661393272833","notes":23591,"npd":5.2,"is_reblog":true,"added_content":false,"tags":[],"delta":41},{"id":"805913490707595264","post_url":"https://www.tumblr.com/blog/view/goodtransgirl/805913490707595264","notes":2041,"npd":0.63,"is_reblog":true,"added_content":false,"tags":[],"delta":5},{"id":"805905176635539456","post_url":"https://www.tumblr.com/blog/view/goodtransgirl/805905176635539456","notes":1982,"npd":3.17,"is_reblog":true,"added_content":false,"tags":[],"delta":25},{"id":"805897004026920960","post_url":"https://www.tumblr.com/blog/view/goodtransgirl/805897004026920960","notes":3340,"npd":2.03,"is_reblog":true,"added_content":false,"tags":[],"delta":16},{"id":"805896313861521408","post_url":"https://www.tumblr.com/blog/view/goodtransgirl/805896313861521408","notes":63174,"npd":15.21,"is_reblog":true,"added_content":false,"tags":[],"delta":120},{"id":"805895667332595712","post_url":"https://www.tumblr.com/blog/view/goodtransgirl/805895667332595712","notes":62,"npd":0,"is_reblog":true,"added_content":false,"tags":[],"delta":0},{"id":"805888694826532864","post_url":"https://www.tumblr.com/blog/view/goodtransgirl/805888694826532864","notes":2508,"npd":1.01,"is_reblog":true,"added_content":false,"tags":[],"delta":8},{"id":"805880520211873792","post_url":"https://www.tumblr.com/blog/view/goodtransgirl/805880520211873792","notes":1543,"npd":1.01,"is_reblog":true,"added_content":false,"tags":[],"delta":8},{"id":"805864036860362752","post_url":"https://www.tumblr.com/blog/view/goodtransgirl/805864036860362752","notes":3106,"npd":0,"is_reblog":true,"added_content":false,"tags":[],"delta":0},{"id":"805855734954967040","post_url":"https://www.tumblr.com/blog/view/goodtransgirl/805855734954967040","notes":592,"npd":0,"is_reblog":true,"added_content":false,"tags":["keysmash","i am so gay"],"delta":0},{"id":"805854537793536000","post_url":"https://www.tumblr.com/blog/view/goodtransgirl/805854537793536000","notes":11141,"npd":1.77,"is_reblog":true,"added_content":false,"tags":[],"delta":14},{"id":"805851435147362304","post_url":"https://www.tumblr.com/blog/view/goodtransgirl/805851435147362304","notes":22951,"npd":135.98,"is_reblog":true,"added_content":false,"tags":[],"delta":1073},{"id":"805848960403128320","post_url":"https://www.tumblr.com/blog/view/goodtransgirl/805848960403128320","notes":8061,"npd":1.01,"is_reblog":true,"added_content":false,"tags":[],"delta":8},{"id":"805845210591592448","post_url":"https://www.tumblr.com/blog/view/goodtransgirl/805845210591592448","notes":31217,"npd":80.98,"is_reblog":true,"added_content":false,"tags":[],"delta":639},{"id":"805845099195006976","post_url":"https://www.tumblr.com/blog/view/goodtransgirl/805845099195006976","notes":494,"npd":0,"is_reblog":true,"added_content":false,"tags":[],"delta":0},{"id":"805845019643854848","post_url":"https://www.tumblr.com/blog/view/goodtransgirl/805845019643854848","notes":40518,"npd":69.58,"is_reblog":true,"added_content":false,"tags":[],"delta":549},{"id":"805844960777781248","post_url":"https://www.tumblr.com/blog/view/goodtransgirl/805844960777781248","notes":10909,"npd":4.06,"is_reblog":true,"added_content":false,"tags":[],"delta":32},{"id":"805832634390413312","post_url":"https://www.tumblr.com/blog/view/goodtransgirl/805832634390413312","notes":7513,"npd":12.29,"is_reblog":true,"added_content":false,"tags":[],"delta":97},{"id":"805829330894798848","post_url":"https://www.tumblr.com/blog/view/goodtransgirl/805829330894798848","notes":2194,"npd":0.38,"is_reblog":true,"added_content":false,"tags":[],"delta":3},{"id":"805829083517927424","post_url":"https://www.tumblr.com/blog/view/goodtransgirl/805829083517927424","notes":5236,"npd":0.76,"is_reblog":true,"added_content":false,"tags":[],"delta":6},{"id":"805828996356030464","post_url":"https://www.tumblr.com/blog/view/goodtransgirl/805828996356030464","notes":60132,"npd":68.18,"is_reblog":true,"added_content":false,"tags":[],"delta":538},{"id":"805828926019665920","post_url":"https://www.tumblr.com/blog/view/goodtransgirl/805828926019665920","notes":552,"npd":0,"is_reblog":true,"added_content":false,"tags":[],"delta":0},{"id":"805828662336339968","post_url":"https://www.tumblr.com/blog/view/goodtransgirl/805828662336339968","notes":3163,"npd":2.15,"is_reblog":true,"added_content":false,"tags":[],"delta":17},{"id":"805825552865968128","post_url":"https://www.tumblr.com/blog/view/goodtransgirl/805825552865968128","notes":9680,"npd":0.38,"is_reblog":true,"added_content":false,"tags":[],"delta":3},{"id":"805824101271928832","post_url":"https://www.tumblr.com/blog/view/goodtransgirl/805824101271928832","notes":17960,"npd":27.12,"is_reblog":true,"added_content":false,"tags":[],"delta":214},{"id":"805824088622940160","post_url":"https://www.tumblr.com/blog/view/goodtransgirl/805824088622940160","notes":1989,"npd":0,"is_reblog":true,"added_content":false,"tags":[],"delta":0},{"id":"805824045421559808","post_url":"https://www.tumblr.com/blog/view/goodtransgirl/805824045421559808","notes":13516,"npd":43.85,"is_reblog":true,"added_content":false,"tags":[],"delta":346}]}