{"exported_at":"2026-04-06T03:01:06.711Z","blog":"goodtransgirl.tumblr.com","page":6,"total_pages":6,"total_rows":1592,"posts":[{"id":"806473430465658880","post_url":"https://www.tumblr.com/blog/view/goodtransgirl/806473430465658880","notes":31203,"npd":36.11,"is_reblog":true,"added_content":false,"tags":[],"delta":309},{"id":"806465263971205120","post_url":"https://www.tumblr.com/blog/view/goodtransgirl/806465263971205120","notes":18105,"npd":3.74,"is_reblog":true,"added_content":false,"tags":[],"delta":32},{"id":"806457082878590976","post_url":"https://www.tumblr.com/blog/view/goodtransgirl/806457082878590976","notes":2729,"npd":15.07,"is_reblog":true,"added_content":false,"tags":[],"delta":129},{"id":"806448764779921408","post_url":"https://www.tumblr.com/blog/view/goodtransgirl/806448764779921408","notes":359,"npd":0,"is_reblog":true,"added_content":false,"tags":[],"delta":0},{"id":"806440562459885568","post_url":"https://www.tumblr.com/blog/view/goodtransgirl/806440562459885568","notes":2658,"npd":0.7,"is_reblog":true,"added_content":false,"tags":[],"delta":6},{"id":"806432276782137344","post_url":"https://www.tumblr.com/blog/view/goodtransgirl/806432276782137344","notes":283,"npd":0.23,"is_reblog":true,"added_content":false,"tags":[],"delta":2},{"id":"806424113333895168","post_url":"https://www.tumblr.com/blog/view/goodtransgirl/806424113333895168","notes":4199,"npd":2.22,"is_reblog":true,"added_content":false,"tags":[],"delta":19},{"id":"806410211613114369","post_url":"https://www.tumblr.com/blog/view/goodtransgirl/806410211613114369","notes":104,"npd":0,"is_reblog":true,"added_content":false,"tags":[],"delta":0},{"id":"806407615854821376","post_url":"https://www.tumblr.com/blog/view/goodtransgirl/806407615854821376","notes":1136,"npd":2.45,"is_reblog":true,"added_content":false,"tags":[],"delta":21},{"id":"806399321135267840","post_url":"https://www.tumblr.com/blog/view/goodtransgirl/806399321135267840","notes":4304,"npd":4.32,"is_reblog":true,"added_content":false,"tags":[],"delta":37},{"id":"806391142961774592","post_url":"https://www.tumblr.com/blog/view/goodtransgirl/806391142961774592","notes":46010,"npd":20.1,"is_reblog":true,"added_content":false,"tags":[],"delta":172},{"id":"806384290067791872","post_url":"https://www.tumblr.com/blog/view/goodtransgirl/806384290067791872","notes":376,"npd":0.12,"is_reblog":true,"added_content":false,"tags":[],"delta":1},{"id":"806382840349704192","post_url":"https://www.tumblr.com/blog/view/goodtransgirl/806382840349704192","notes":1053,"npd":1.05,"is_reblog":true,"added_content":false,"tags":[],"delta":9},{"id":"806374648792203264","post_url":"https://www.tumblr.com/blog/view/goodtransgirl/806374648792203264","notes":1341,"npd":0.23,"is_reblog":true,"added_content":false,"tags":[],"delta":2},{"id":"806366469174804480","post_url":"https://www.tumblr.com/blog/view/goodtransgirl/806366469174804480","notes":36544,"npd":1.99,"is_reblog":true,"added_content":false,"tags":[],"delta":17},{"id":"806358165521317889","post_url":"https://www.tumblr.com/blog/view/goodtransgirl/806358165521317889","notes":7783,"npd":37.28,"is_reblog":true,"added_content":false,"tags":[],"delta":319},{"id":"806349995335958528","post_url":"https://www.tumblr.com/blog/view/goodtransgirl/806349995335958528","notes":369,"npd":0,"is_reblog":true,"added_content":false,"tags":[],"delta":0},{"id":"806341690479804416","post_url":"https://www.tumblr.com/blog/view/goodtransgirl/806341690479804416","notes":1518,"npd":0.35,"is_reblog":true,"added_content":false,"tags":[],"delta":3},{"id":"806333501779705856","post_url":"https://www.tumblr.com/blog/view/goodtransgirl/806333501779705856","notes":2717,"npd":0.35,"is_reblog":true,"added_content":false,"tags":[],"delta":3},{"id":"806317039014805504","post_url":"https://www.tumblr.com/blog/view/goodtransgirl/806317039014805504","notes":194,"npd":0,"is_reblog":true,"added_content":false,"tags":[],"delta":0},{"id":"806316965521195008","post_url":"https://www.tumblr.com/blog/view/goodtransgirl/806316965521195008","notes":154,"npd":0,"is_reblog":true,"added_content":false,"tags":[],"delta":0},{"id":"806308716010946560","post_url":"https://www.tumblr.com/blog/view/goodtransgirl/806308716010946560","notes":710,"npd":0,"is_reblog":true,"added_content":false,"tags":[],"delta":0},{"id":"806300535830593536","post_url":"https://www.tumblr.com/blog/view/goodtransgirl/806300535830593536","notes":4637,"npd":12.39,"is_reblog":true,"added_content":false,"tags":[],"delta":106},{"id":"806292248318885888","post_url":"https://www.tumblr.com/blog/view/goodtransgirl/806292248318885888","notes":3283,"npd":0.23,"is_reblog":true,"added_content":false,"tags":[],"delta":2},{"id":"806284058101415936","post_url":"https://www.tumblr.com/blog/view/goodtransgirl/806284058101415936","notes":447,"npd":0,"is_reblog":true,"added_content":false,"tags":[],"delta":0},{"id":"806275869075177472","post_url":"https://www.tumblr.com/blog/view/goodtransgirl/806275869075177472","notes":5894,"npd":0.23,"is_reblog":true,"added_content":false,"tags":[],"delta":2},{"id":"806267570399444993","post_url":"https://www.tumblr.com/blog/view/goodtransgirl/806267570399444993","notes":15479,"npd":0.47,"is_reblog":true,"added_content":false,"tags":[],"delta":4},{"id":"806259389957865472","post_url":"https://www.tumblr.com/blog/view/goodtransgirl/806259389957865472","notes":223,"npd":0,"is_reblog":true,"added_content":false,"tags":[],"delta":0},{"id":"806251088246358016","post_url":"https://www.tumblr.com/blog/view/goodtransgirl/806251088246358016","notes":186542,"npd":1.87,"is_reblog":true,"added_content":false,"tags":[],"delta":16},{"id":"806242903091527680","post_url":"https://www.tumblr.com/blog/view/goodtransgirl/806242903091527680","notes":4046,"npd":19.75,"is_reblog":true,"added_content":false,"tags":[],"delta":169},{"id":"806226426938441728","post_url":"https://www.tumblr.com/blog/view/goodtransgirl/806226426938441728","notes":1266,"npd":4.32,"is_reblog":true,"added_content":false,"tags":[],"delta":37},{"id":"806218120350089217","post_url":"https://www.tumblr.com/blog/view/goodtransgirl/806218120350089217","notes":135270,"npd":523.4,"is_reblog":true,"added_content":false,"tags":[],"delta":4479,"likes":84368,"reblogs":49813,"comments":0},{"id":"806209953753972736","post_url":"https://www.tumblr.com/blog/view/goodtransgirl/806209953753972736","notes":1657,"npd":3.27,"is_reblog":true,"added_content":false,"tags":[],"delta":28},{"id":"806201646452441088","post_url":"https://www.tumblr.com/blog/view/goodtransgirl/806201646452441088","notes":730,"npd":0.12,"is_reblog":true,"added_content":false,"tags":[],"delta":1},{"id":"806201536596279296","post_url":"https://www.tumblr.com/blog/view/goodtransgirl/806201536596279296","notes":690,"npd":0,"is_reblog":true,"added_content":false,"tags":["🥺🥺🥺"],"delta":0},{"id":"806193455857647616","post_url":"https://www.tumblr.com/blog/view/goodtransgirl/806193455857647616","notes":37550,"npd":123.17,"is_reblog":true,"added_content":false,"tags":[],"delta":1054},{"id":"806188298710269952","post_url":"https://www.tumblr.com/blog/view/goodtransgirl/806188298710269952","notes":78104,"npd":1.75,"is_reblog":true,"added_content":false,"tags":[],"delta":15},{"id":"806185282278998016","post_url":"https://www.tumblr.com/blog/view/goodtransgirl/806185282278998016","notes":17441,"npd":6.43,"is_reblog":true,"added_content":false,"tags":[],"delta":55},{"id":"806176977155440640","post_url":"https://www.tumblr.com/blog/view/goodtransgirl/806176977155440640","notes":6321,"npd":0.93,"is_reblog":true,"added_content":false,"tags":[],"delta":8},{"id":"806168794601062401","post_url":"https://www.tumblr.com/blog/view/goodtransgirl/806168794601062401","notes":1511,"npd":0.35,"is_reblog":true,"added_content":false,"tags":[],"delta":3},{"id":"806160492221628416","post_url":"https://www.tumblr.com/blog/view/goodtransgirl/806160492221628416","notes":2909,"npd":0.7,"is_reblog":true,"added_content":false,"tags":[],"delta":6},{"id":"806152328618131456","post_url":"https://www.tumblr.com/blog/view/goodtransgirl/806152328618131456","notes":6889,"npd":7.25,"is_reblog":true,"added_content":false,"tags":[],"delta":62},{"id":"806135824973496321","post_url":"https://www.tumblr.com/blog/view/goodtransgirl/806135824973496321","notes":241213,"npd":120.01,"is_reblog":true,"added_content":false,"tags":[],"delta":1027},{"id":"806127517145694208","post_url":"https://www.tumblr.com/blog/view/goodtransgirl/806127517145694208","notes":14087,"npd":34.12,"is_reblog":true,"added_content":false,"tags":[],"delta":292},{"id":"806119350302048256","post_url":"https://www.tumblr.com/blog/view/goodtransgirl/806119350302048256","notes":1841,"npd":0.47,"is_reblog":true,"added_content":false,"tags":[],"delta":4},{"id":"806102862444789760","post_url":"https://www.tumblr.com/blog/view/goodtransgirl/806102862444789760","notes":18542,"npd":273.68,"is_reblog":true,"added_content":false,"tags":[],"delta":2342},{"id":"806094677603385344","post_url":"https://www.tumblr.com/blog/view/goodtransgirl/806094677603385344","notes":534,"npd":0,"is_reblog":true,"added_content":false,"tags":[],"delta":0},{"id":"806086372679139328","post_url":"https://www.tumblr.com/blog/view/goodtransgirl/806086372679139328","notes":80533,"npd":48.26,"is_reblog":true,"added_content":false,"tags":[],"delta":413},{"id":"806078199701389312","post_url":"https://www.tumblr.com/blog/view/goodtransgirl/806078199701389312","notes":33188,"npd":0.93,"is_reblog":true,"added_content":false,"tags":[],"delta":8},{"id":"806069893127618561","post_url":"https://www.tumblr.com/blog/view/goodtransgirl/806069893127618561","notes":1305,"npd":0,"is_reblog":true,"added_content":false,"tags":[],"delta":0},{"id":"806061723535769600","post_url":"https://www.tumblr.com/blog/view/goodtransgirl/806061723535769600","notes":9656,"npd":5.14,"is_reblog":true,"added_content":false,"tags":[],"delta":44},{"id":"806045246270193664","post_url":"https://www.tumblr.com/blog/view/goodtransgirl/806045246270193664","notes":21403,"npd":15.66,"is_reblog":true,"added_content":false,"tags":[],"delta":134},{"id":"806036920204410881","post_url":"https://www.tumblr.com/blog/view/goodtransgirl/806036920204410881","notes":592,"npd":0,"is_reblog":true,"added_content":false,"tags":[],"delta":0},{"id":"806028766171267072","post_url":"https://www.tumblr.com/blog/view/goodtransgirl/806028766171267072","notes":22189,"npd":20.57,"is_reblog":true,"added_content":false,"tags":[],"delta":176},{"id":"806020567881891840","post_url":"https://www.tumblr.com/blog/view/goodtransgirl/806020567881891840","notes":6619,"npd":9.7,"is_reblog":true,"added_content":false,"tags":[],"delta":83},{"id":"806012265333669888","post_url":"https://www.tumblr.com/blog/view/goodtransgirl/806012265333669888","notes":419,"npd":0.12,"is_reblog":true,"added_content":false,"tags":[],"delta":1},{"id":"806004087200022528","post_url":"https://www.tumblr.com/blog/view/goodtransgirl/806004087200022528","notes":7304,"npd":5.73,"is_reblog":true,"added_content":false,"tags":[],"delta":49},{"id":"805995808706150400","post_url":"https://www.tumblr.com/blog/view/goodtransgirl/805995808706150400","notes":3219,"npd":7.13,"is_reblog":true,"added_content":false,"tags":[],"delta":61},{"id":"805987606734176256","post_url":"https://www.tumblr.com/blog/view/goodtransgirl/805987606734176256","notes":1711,"npd":0,"is_reblog":true,"added_content":false,"tags":[],"delta":0},{"id":"805979299285975040","post_url":"https://www.tumblr.com/blog/view/goodtransgirl/805979299285975040","notes":3280,"npd":3.16,"is_reblog":true,"added_content":false,"tags":[],"delta":27},{"id":"805971129980403712","post_url":"https://www.tumblr.com/blog/view/goodtransgirl/805971129980403712","notes":325,"npd":0,"is_reblog":true,"added_content":false,"tags":[],"delta":0},{"id":"805954631432847360","post_url":"https://www.tumblr.com/blog/view/goodtransgirl/805954631432847360","notes":897,"npd":1.17,"is_reblog":true,"added_content":false,"tags":[],"delta":10},{"id":"805946340578328576","post_url":"https://www.tumblr.com/blog/view/goodtransgirl/805946340578328576","notes":3850,"npd":6.43,"is_reblog":true,"added_content":false,"tags":[],"delta":55},{"id":"805938148452564992","post_url":"https://www.tumblr.com/blog/view/goodtransgirl/805938148452564992","notes":33629,"npd":15.19,"is_reblog":true,"added_content":false,"tags":[],"delta":130},{"id":"805929971651690496","post_url":"https://www.tumblr.com/blog/view/goodtransgirl/805929971651690496","notes":812,"npd":0.35,"is_reblog":true,"added_content":false,"tags":[],"delta":3},{"id":"805921661393272833","post_url":"https://www.tumblr.com/blog/view/goodtransgirl/805921661393272833","notes":23594,"npd":5.14,"is_reblog":true,"added_content":false,"tags":[],"delta":44},{"id":"805913490707595264","post_url":"https://www.tumblr.com/blog/view/goodtransgirl/805913490707595264","notes":2041,"npd":0.58,"is_reblog":true,"added_content":false,"tags":[],"delta":5},{"id":"805905176635539456","post_url":"https://www.tumblr.com/blog/view/goodtransgirl/805905176635539456","notes":1982,"npd":2.92,"is_reblog":true,"added_content":false,"tags":[],"delta":25},{"id":"805897004026920960","post_url":"https://www.tumblr.com/blog/view/goodtransgirl/805897004026920960","notes":3343,"npd":2.22,"is_reblog":true,"added_content":false,"tags":[],"delta":19},{"id":"805896313861521408","post_url":"https://www.tumblr.com/blog/view/goodtransgirl/805896313861521408","notes":63176,"npd":14.26,"is_reblog":true,"added_content":false,"tags":[],"delta":122},{"id":"805895667332595712","post_url":"https://www.tumblr.com/blog/view/goodtransgirl/805895667332595712","notes":62,"npd":0,"is_reblog":true,"added_content":false,"tags":[],"delta":0},{"id":"805888694826532864","post_url":"https://www.tumblr.com/blog/view/goodtransgirl/805888694826532864","notes":2508,"npd":0.93,"is_reblog":true,"added_content":false,"tags":[],"delta":8},{"id":"805880520211873792","post_url":"https://www.tumblr.com/blog/view/goodtransgirl/805880520211873792","notes":1543,"npd":0.93,"is_reblog":true,"added_content":false,"tags":[],"delta":8},{"id":"805864036860362752","post_url":"https://www.tumblr.com/blog/view/goodtransgirl/805864036860362752","notes":3106,"npd":0,"is_reblog":true,"added_content":false,"tags":[],"delta":0},{"id":"805855734954967040","post_url":"https://www.tumblr.com/blog/view/goodtransgirl/805855734954967040","notes":592,"npd":0,"is_reblog":true,"added_content":false,"tags":["keysmash","i am so gay"],"delta":0},{"id":"805854537793536000","post_url":"https://www.tumblr.com/blog/view/goodtransgirl/805854537793536000","notes":11141,"npd":1.64,"is_reblog":true,"added_content":false,"tags":[],"delta":14},{"id":"805851435147362304","post_url":"https://www.tumblr.com/blog/view/goodtransgirl/805851435147362304","notes":23010,"npd":132.28,"is_reblog":true,"added_content":false,"tags":[],"delta":1132},{"id":"805848960403128320","post_url":"https://www.tumblr.com/blog/view/goodtransgirl/805848960403128320","notes":8062,"npd":1.05,"is_reblog":true,"added_content":false,"tags":[],"delta":9},{"id":"805845210591592448","post_url":"https://www.tumblr.com/blog/view/goodtransgirl/805845210591592448","notes":31278,"npd":81.8,"is_reblog":true,"added_content":false,"tags":[],"delta":700},{"id":"805845099195006976","post_url":"https://www.tumblr.com/blog/view/goodtransgirl/805845099195006976","notes":494,"npd":0,"is_reblog":true,"added_content":false,"tags":[],"delta":0},{"id":"805845019643854848","post_url":"https://www.tumblr.com/blog/view/goodtransgirl/805845019643854848","notes":40605,"npd":74.32,"is_reblog":true,"added_content":false,"tags":[],"delta":636},{"id":"805844960777781248","post_url":"https://www.tumblr.com/blog/view/goodtransgirl/805844960777781248","notes":10914,"npd":4.32,"is_reblog":true,"added_content":false,"tags":[],"delta":37},{"id":"805832634390413312","post_url":"https://www.tumblr.com/blog/view/goodtransgirl/805832634390413312","notes":7525,"npd":12.74,"is_reblog":true,"added_content":false,"tags":[],"delta":109},{"id":"805829330894798848","post_url":"https://www.tumblr.com/blog/view/goodtransgirl/805829330894798848","notes":2194,"npd":0.35,"is_reblog":true,"added_content":false,"tags":[],"delta":3},{"id":"805829083517927424","post_url":"https://www.tumblr.com/blog/view/goodtransgirl/805829083517927424","notes":5236,"npd":0.7,"is_reblog":true,"added_content":false,"tags":[],"delta":6},{"id":"805828996356030464","post_url":"https://www.tumblr.com/blog/view/goodtransgirl/805828996356030464","notes":60186,"npd":69.18,"is_reblog":true,"added_content":false,"tags":[],"delta":592},{"id":"805828926019665920","post_url":"https://www.tumblr.com/blog/view/goodtransgirl/805828926019665920","notes":552,"npd":0,"is_reblog":true,"added_content":false,"tags":[],"delta":0},{"id":"805828662336339968","post_url":"https://www.tumblr.com/blog/view/goodtransgirl/805828662336339968","notes":3163,"npd":1.99,"is_reblog":true,"added_content":false,"tags":[],"delta":17},{"id":"805825552865968128","post_url":"https://www.tumblr.com/blog/view/goodtransgirl/805825552865968128","notes":9680,"npd":0.35,"is_reblog":true,"added_content":false,"tags":[],"delta":3},{"id":"805824101271928832","post_url":"https://www.tumblr.com/blog/view/goodtransgirl/805824101271928832","notes":17975,"npd":26.76,"is_reblog":true,"added_content":false,"tags":[],"delta":229},{"id":"805824088622940160","post_url":"https://www.tumblr.com/blog/view/goodtransgirl/805824088622940160","notes":1989,"npd":0,"is_reblog":true,"added_content":false,"tags":[],"delta":0},{"id":"805824045421559808","post_url":"https://www.tumblr.com/blog/view/goodtransgirl/805824045421559808","notes":13558,"npd":45.34,"is_reblog":true,"added_content":false,"tags":[],"delta":388}]}