{"exported_at":"2026-04-08T05:02:45.058Z","blog":"goodtransgirl.tumblr.com","page":6,"total_pages":6,"total_rows":1642,"posts":[{"id":"806827648937574400","post_url":"https://www.tumblr.com/blog/view/goodtransgirl/806827648937574400","notes":59,"npd":0,"is_reblog":true,"added_content":false,"tags":[],"delta":0},{"id":"806823782201294848","post_url":"https://www.tumblr.com/blog/view/goodtransgirl/806823782201294848","notes":40870,"npd":7.24,"is_reblog":true,"added_content":false,"tags":[],"delta":77},{"id":"806819458811297792","post_url":"https://www.tumblr.com/blog/view/goodtransgirl/806819458811297792","notes":66,"npd":0,"is_reblog":true,"added_content":false,"tags":[],"delta":0},{"id":"806811172228759552","post_url":"https://www.tumblr.com/blog/view/goodtransgirl/806811172228759552","notes":4502,"npd":4.6,"is_reblog":true,"added_content":false,"tags":[],"delta":49},{"id":"806802973856563200","post_url":"https://www.tumblr.com/blog/view/goodtransgirl/806802973856563200","notes":4046,"npd":3.57,"is_reblog":true,"added_content":false,"tags":[],"delta":38},{"id":"806798900676706304","post_url":"https://www.tumblr.com/blog/view/goodtransgirl/806798900676706304","notes":2,"npd":0,"is_reblog":true,"added_content":false,"tags":[],"delta":0},{"id":"806794660953620480","post_url":"https://www.tumblr.com/blog/view/goodtransgirl/806794660953620480","notes":687,"npd":0,"is_reblog":true,"added_content":false,"tags":[],"delta":0},{"id":"806786494851399680","post_url":"https://www.tumblr.com/blog/view/goodtransgirl/806786494851399680","notes":3221,"npd":17.1,"is_reblog":true,"added_content":false,"tags":[],"delta":182},{"id":"806770026665426944","post_url":"https://www.tumblr.com/blog/view/goodtransgirl/806770026665426944","notes":419,"npd":0,"is_reblog":true,"added_content":false,"tags":[],"delta":0},{"id":"806761716359774209","post_url":"https://www.tumblr.com/blog/view/goodtransgirl/806761716359774209","notes":1394,"npd":0.47,"is_reblog":true,"added_content":false,"tags":[],"delta":5},{"id":"806753547901452288","post_url":"https://www.tumblr.com/blog/view/goodtransgirl/806753547901452288","notes":7049,"npd":0.28,"is_reblog":true,"added_content":false,"tags":[],"delta":3},{"id":"806745234817138688","post_url":"https://www.tumblr.com/blog/view/goodtransgirl/806745234817138688","notes":514,"npd":0,"is_reblog":true,"added_content":false,"tags":[],"delta":0},{"id":"806737061791121408","post_url":"https://www.tumblr.com/blog/view/goodtransgirl/806737061791121408","notes":4969,"npd":50.84,"is_reblog":true,"added_content":false,"tags":[],"delta":541},{"id":"806728866209087488","post_url":"https://www.tumblr.com/blog/view/goodtransgirl/806728866209087488","notes":29501,"npd":17.38,"is_reblog":true,"added_content":false,"tags":[],"delta":185},{"id":"806720555780915200","post_url":"https://www.tumblr.com/blog/view/goodtransgirl/806720555780915200","notes":912,"npd":0.09,"is_reblog":true,"added_content":false,"tags":[],"delta":1},{"id":"806714521616039936","post_url":"https://www.tumblr.com/blog/view/goodtransgirl/806714521616039936","notes":622085,"npd":17.1,"is_reblog":true,"added_content":false,"tags":[],"delta":182},{"id":"806712376262115328","post_url":"https://www.tumblr.com/blog/view/goodtransgirl/806712376262115328","notes":45651,"npd":22.55,"is_reblog":true,"added_content":false,"tags":[],"delta":240},{"id":"806704081542463488","post_url":"https://www.tumblr.com/blog/view/goodtransgirl/806704081542463488","notes":18654,"npd":21.24,"is_reblog":true,"added_content":false,"tags":[],"delta":226},{"id":"806695901073686528","post_url":"https://www.tumblr.com/blog/view/goodtransgirl/806695901073686528","notes":143680,"npd":5.83,"is_reblog":true,"added_content":false,"tags":[],"delta":62},{"id":"806679432745140224","post_url":"https://www.tumblr.com/blog/view/goodtransgirl/806679432745140224","notes":3854,"npd":0.19,"is_reblog":true,"added_content":false,"tags":[],"delta":2},{"id":"806677098397859840","post_url":"https://www.tumblr.com/blog/view/goodtransgirl/806677098397859840","notes":572,"npd":0,"is_reblog":true,"added_content":false,"tags":[],"delta":0},{"id":"806672083246612480","post_url":"https://www.tumblr.com/blog/view/goodtransgirl/806672083246612480","notes":57856,"npd":34.86,"is_reblog":true,"added_content":false,"tags":[],"delta":371},{"id":"806671117329858560","post_url":"https://www.tumblr.com/blog/view/goodtransgirl/806671117329858560","notes":9475,"npd":0.66,"is_reblog":true,"added_content":false,"tags":[],"delta":7},{"id":"806662948217044992","post_url":"https://www.tumblr.com/blog/view/goodtransgirl/806662948217044992","notes":48724,"npd":1.6,"is_reblog":true,"added_content":false,"tags":[],"delta":17},{"id":"806655064218517504","post_url":"https://www.tumblr.com/blog/view/goodtransgirl/806655064218517504","notes":10622,"npd":24.62,"is_reblog":true,"added_content":false,"tags":[],"delta":262},{"id":"806653864436760579","post_url":"https://www.tumblr.com/blog/view/goodtransgirl/806653864436760579","notes":69161,"npd":127.42,"is_reblog":true,"added_content":false,"tags":[],"delta":1356},{"id":"806646476581240832","post_url":"https://www.tumblr.com/blog/view/goodtransgirl/806646476581240832","notes":194,"npd":0,"is_reblog":true,"added_content":false,"tags":[],"delta":0},{"id":"806629984028524544","post_url":"https://www.tumblr.com/blog/view/goodtransgirl/806629984028524544","notes":18094,"npd":0.85,"is_reblog":true,"added_content":false,"tags":[],"delta":9},{"id":"806621784048812032","post_url":"https://www.tumblr.com/blog/view/goodtransgirl/806621784048812032","notes":195,"npd":0,"is_reblog":true,"added_content":false,"tags":[],"delta":0},{"id":"806620067211182080","post_url":"https://www.tumblr.com/blog/view/goodtransgirl/806620067211182080","notes":26073,"npd":0,"is_reblog":true,"added_content":false,"tags":[],"delta":0},{"id":"806613473773682688","post_url":"https://www.tumblr.com/blog/view/goodtransgirl/806613473773682688","notes":2384,"npd":0,"is_reblog":true,"added_content":false,"tags":[],"delta":0},{"id":"806605294629224448","post_url":"https://www.tumblr.com/blog/view/goodtransgirl/806605294629224448","notes":6273,"npd":0.19,"is_reblog":true,"added_content":false,"tags":[],"delta":2},{"id":"806605036173033472","post_url":"https://www.tumblr.com/blog/view/goodtransgirl/806605036173033472","notes":131,"npd":0,"is_reblog":true,"added_content":false,"tags":[],"delta":0},{"id":"806588826177896448","post_url":"https://www.tumblr.com/blog/view/goodtransgirl/806588826177896448","notes":23201,"npd":70.48,"is_reblog":true,"added_content":false,"tags":[],"delta":750},{"id":"806582585209847808","post_url":"https://www.tumblr.com/blog/view/goodtransgirl/806582585209847808","notes":188,"npd":0,"is_reblog":true,"added_content":false,"tags":[],"delta":0},{"id":"806580520012152832","post_url":"https://www.tumblr.com/blog/view/goodtransgirl/806580520012152832","notes":1153,"npd":0,"is_reblog":true,"added_content":false,"tags":[],"delta":0},{"id":"806572333352583168","post_url":"https://www.tumblr.com/blog/view/goodtransgirl/806572333352583168","notes":26619,"npd":0.28,"is_reblog":true,"added_content":false,"tags":[],"delta":3},{"id":"806564020598521856","post_url":"https://www.tumblr.com/blog/view/goodtransgirl/806564020598521856","notes":4367,"npd":0.56,"is_reblog":true,"added_content":false,"tags":[],"delta":6},{"id":"806555858652856320","post_url":"https://www.tumblr.com/blog/view/goodtransgirl/806555858652856320","notes":124,"npd":0,"is_reblog":true,"added_content":false,"tags":[],"delta":0},{"id":"806554486752624640","post_url":"https://www.tumblr.com/blog/view/goodtransgirl/806554486752624640","notes":105,"npd":0,"is_reblog":true,"added_content":false,"tags":[],"delta":0},{"id":"806547563012571136","post_url":"https://www.tumblr.com/blog/view/goodtransgirl/806547563012571136","notes":2300,"npd":0,"is_reblog":true,"added_content":false,"tags":[],"delta":0},{"id":"806539363662118912","post_url":"https://www.tumblr.com/blog/view/goodtransgirl/806539363662118912","notes":18278,"npd":3.66,"is_reblog":true,"added_content":false,"tags":[],"delta":39},{"id":"806522879438192640","post_url":"https://www.tumblr.com/blog/view/goodtransgirl/806522879438192640","notes":13552,"npd":2.91,"is_reblog":true,"added_content":false,"tags":[],"delta":31},{"id":"806514698438803456","post_url":"https://www.tumblr.com/blog/view/goodtransgirl/806514698438803456","notes":7522,"npd":7.52,"is_reblog":true,"added_content":false,"tags":[],"delta":80},{"id":"806500108953845760","post_url":"https://www.tumblr.com/blog/view/goodtransgirl/806500108953845760","notes":41,"npd":0,"is_reblog":true,"added_content":false,"tags":[],"delta":0},{"id":"806498231877074944","post_url":"https://www.tumblr.com/blog/view/goodtransgirl/806498231877074944","notes":886,"npd":0,"is_reblog":true,"added_content":false,"tags":[],"delta":0},{"id":"806492720612982785","post_url":"https://www.tumblr.com/blog/view/goodtransgirl/806492720612982785","notes":101,"npd":0,"is_reblog":true,"added_content":false,"tags":[],"delta":0},{"id":"806489927301971968","post_url":"https://www.tumblr.com/blog/view/goodtransgirl/806489927301971968","notes":128348,"npd":0.19,"is_reblog":true,"added_content":false,"tags":[],"delta":2},{"id":"806488054225354752","post_url":"https://www.tumblr.com/blog/view/goodtransgirl/806488054225354752","notes":131,"npd":0.09,"is_reblog":true,"added_content":false,"tags":[],"delta":1},{"id":"806481748734148608","post_url":"https://www.tumblr.com/blog/view/goodtransgirl/806481748734148608","notes":6428,"npd":4.98,"is_reblog":true,"added_content":false,"tags":[],"delta":53},{"id":"806473430465658880","post_url":"https://www.tumblr.com/blog/view/goodtransgirl/806473430465658880","notes":31210,"npd":29.69,"is_reblog":true,"added_content":false,"tags":[],"delta":316},{"id":"806465263971205120","post_url":"https://www.tumblr.com/blog/view/goodtransgirl/806465263971205120","notes":18126,"npd":4.98,"is_reblog":true,"added_content":false,"tags":[],"delta":53},{"id":"806457082878590976","post_url":"https://www.tumblr.com/blog/view/goodtransgirl/806457082878590976","notes":2964,"npd":34.2,"is_reblog":true,"added_content":false,"tags":[],"delta":364},{"id":"806448764779921408","post_url":"https://www.tumblr.com/blog/view/goodtransgirl/806448764779921408","notes":359,"npd":0,"is_reblog":true,"added_content":false,"tags":[],"delta":0},{"id":"806440562459885568","post_url":"https://www.tumblr.com/blog/view/goodtransgirl/806440562459885568","notes":2668,"npd":1.5,"is_reblog":true,"added_content":false,"tags":[],"delta":16},{"id":"806432276782137344","post_url":"https://www.tumblr.com/blog/view/goodtransgirl/806432276782137344","notes":285,"npd":0.38,"is_reblog":true,"added_content":false,"tags":[],"delta":4},{"id":"806424113333895168","post_url":"https://www.tumblr.com/blog/view/goodtransgirl/806424113333895168","notes":4200,"npd":1.88,"is_reblog":true,"added_content":false,"tags":[],"delta":20},{"id":"806410211613114369","post_url":"https://www.tumblr.com/blog/view/goodtransgirl/806410211613114369","notes":104,"npd":0,"is_reblog":true,"added_content":false,"tags":[],"delta":0},{"id":"806407615854821376","post_url":"https://www.tumblr.com/blog/view/goodtransgirl/806407615854821376","notes":1137,"npd":2.07,"is_reblog":true,"added_content":false,"tags":[],"delta":22},{"id":"806399321135267840","post_url":"https://www.tumblr.com/blog/view/goodtransgirl/806399321135267840","notes":4304,"npd":3.48,"is_reblog":true,"added_content":false,"tags":[],"delta":37},{"id":"806391142961774592","post_url":"https://www.tumblr.com/blog/view/goodtransgirl/806391142961774592","notes":46096,"npd":24.24,"is_reblog":true,"added_content":false,"tags":[],"delta":258},{"id":"806384290067791872","post_url":"https://www.tumblr.com/blog/view/goodtransgirl/806384290067791872","notes":378,"npd":0.28,"is_reblog":true,"added_content":false,"tags":[],"delta":3},{"id":"806382840349704192","post_url":"https://www.tumblr.com/blog/view/goodtransgirl/806382840349704192","notes":1054,"npd":0.94,"is_reblog":true,"added_content":false,"tags":[],"delta":10},{"id":"806374648792203264","post_url":"https://www.tumblr.com/blog/view/goodtransgirl/806374648792203264","notes":1341,"npd":0.19,"is_reblog":true,"added_content":false,"tags":[],"delta":2},{"id":"806366469174804480","post_url":"https://www.tumblr.com/blog/view/goodtransgirl/806366469174804480","notes":36545,"npd":1.69,"is_reblog":true,"added_content":false,"tags":[],"delta":18},{"id":"806358165521317889","post_url":"https://www.tumblr.com/blog/view/goodtransgirl/806358165521317889","notes":7894,"npd":40.41,"is_reblog":true,"added_content":false,"tags":[],"delta":430},{"id":"806349995335958528","post_url":"https://www.tumblr.com/blog/view/goodtransgirl/806349995335958528","notes":369,"npd":0,"is_reblog":true,"added_content":false,"tags":[],"delta":0},{"id":"806341690479804416","post_url":"https://www.tumblr.com/blog/view/goodtransgirl/806341690479804416","notes":1518,"npd":0.28,"is_reblog":true,"added_content":false,"tags":[],"delta":3},{"id":"806333501779705856","post_url":"https://www.tumblr.com/blog/view/goodtransgirl/806333501779705856","notes":2717,"npd":0.28,"is_reblog":true,"added_content":false,"tags":[],"delta":3},{"id":"806317039014805504","post_url":"https://www.tumblr.com/blog/view/goodtransgirl/806317039014805504","notes":194,"npd":0,"is_reblog":true,"added_content":false,"tags":[],"delta":0},{"id":"806316965521195008","post_url":"https://www.tumblr.com/blog/view/goodtransgirl/806316965521195008","notes":154,"npd":0,"is_reblog":true,"added_content":false,"tags":[],"delta":0},{"id":"806308716010946560","post_url":"https://www.tumblr.com/blog/view/goodtransgirl/806308716010946560","notes":710,"npd":0,"is_reblog":true,"added_content":false,"tags":[],"delta":0},{"id":"806300535830593536","post_url":"https://www.tumblr.com/blog/view/goodtransgirl/806300535830593536","notes":4655,"npd":11.65,"is_reblog":true,"added_content":false,"tags":[],"delta":124},{"id":"806292248318885888","post_url":"https://www.tumblr.com/blog/view/goodtransgirl/806292248318885888","notes":3283,"npd":0.19,"is_reblog":true,"added_content":false,"tags":[],"delta":2},{"id":"806284058101415936","post_url":"https://www.tumblr.com/blog/view/goodtransgirl/806284058101415936","notes":447,"npd":0,"is_reblog":true,"added_content":false,"tags":[],"delta":0},{"id":"806275869075177472","post_url":"https://www.tumblr.com/blog/view/goodtransgirl/806275869075177472","notes":5896,"npd":0.38,"is_reblog":true,"added_content":false,"tags":[],"delta":4},{"id":"806267570399444993","post_url":"https://www.tumblr.com/blog/view/goodtransgirl/806267570399444993","notes":15494,"npd":1.79,"is_reblog":true,"added_content":false,"tags":[],"delta":19},{"id":"806259389957865472","post_url":"https://www.tumblr.com/blog/view/goodtransgirl/806259389957865472","notes":223,"npd":0,"is_reblog":true,"added_content":false,"tags":[],"delta":0},{"id":"806251088246358016","post_url":"https://www.tumblr.com/blog/view/goodtransgirl/806251088246358016","notes":186542,"npd":1.5,"is_reblog":true,"added_content":false,"tags":[],"delta":16},{"id":"806242903091527680","post_url":"https://www.tumblr.com/blog/view/goodtransgirl/806242903091527680","notes":4061,"npd":17.29,"is_reblog":true,"added_content":false,"tags":[],"delta":184},{"id":"806226426938441728","post_url":"https://www.tumblr.com/blog/view/goodtransgirl/806226426938441728","notes":1267,"npd":3.57,"is_reblog":true,"added_content":false,"tags":[],"delta":38},{"id":"806218120350089217","post_url":"https://www.tumblr.com/blog/view/goodtransgirl/806218120350089217","notes":136177,"npd":506.11,"is_reblog":true,"added_content":false,"tags":[],"delta":5386,"likes":84958,"reblogs":50064,"comments":0},{"id":"806209953753972736","post_url":"https://www.tumblr.com/blog/view/goodtransgirl/806209953753972736","notes":1657,"npd":2.63,"is_reblog":true,"added_content":false,"tags":[],"delta":28},{"id":"806201646452441088","post_url":"https://www.tumblr.com/blog/view/goodtransgirl/806201646452441088","notes":730,"npd":0.09,"is_reblog":true,"added_content":false,"tags":[],"delta":1},{"id":"806201536596279296","post_url":"https://www.tumblr.com/blog/view/goodtransgirl/806201536596279296","notes":690,"npd":0,"is_reblog":true,"added_content":false,"tags":["🥺🥺🥺"],"delta":0},{"id":"806193455857647616","post_url":"https://www.tumblr.com/blog/view/goodtransgirl/806193455857647616","notes":37752,"npd":118.02,"is_reblog":true,"added_content":false,"tags":[],"delta":1256},{"id":"806188298710269952","post_url":"https://www.tumblr.com/blog/view/goodtransgirl/806188298710269952","notes":78105,"npd":1.5,"is_reblog":true,"added_content":false,"tags":[],"delta":16},{"id":"806185282278998016","post_url":"https://www.tumblr.com/blog/view/goodtransgirl/806185282278998016","notes":17444,"npd":5.45,"is_reblog":true,"added_content":false,"tags":[],"delta":58},{"id":"806176977155440640","post_url":"https://www.tumblr.com/blog/view/goodtransgirl/806176977155440640","notes":6321,"npd":0.75,"is_reblog":true,"added_content":false,"tags":[],"delta":8},{"id":"806168794601062401","post_url":"https://www.tumblr.com/blog/view/goodtransgirl/806168794601062401","notes":1512,"npd":0.38,"is_reblog":true,"added_content":false,"tags":[],"delta":4},{"id":"806160492221628416","post_url":"https://www.tumblr.com/blog/view/goodtransgirl/806160492221628416","notes":2910,"npd":0.66,"is_reblog":true,"added_content":false,"tags":[],"delta":7},{"id":"806152328618131456","post_url":"https://www.tumblr.com/blog/view/goodtransgirl/806152328618131456","notes":6911,"npd":7.89,"is_reblog":true,"added_content":false,"tags":[],"delta":84},{"id":"806135824973496321","post_url":"https://www.tumblr.com/blog/view/goodtransgirl/806135824973496321","notes":241511,"npd":124.51,"is_reblog":true,"added_content":false,"tags":[],"delta":1325},{"id":"806127517145694208","post_url":"https://www.tumblr.com/blog/view/goodtransgirl/806127517145694208","notes":14209,"npd":38.9,"is_reblog":true,"added_content":false,"tags":[],"delta":414},{"id":"806119350302048256","post_url":"https://www.tumblr.com/blog/view/goodtransgirl/806119350302048256","notes":1841,"npd":0.38,"is_reblog":true,"added_content":false,"tags":[],"delta":4},{"id":"806102862444789760","post_url":"https://www.tumblr.com/blog/view/goodtransgirl/806102862444789760","notes":18686,"npd":233.6,"is_reblog":true,"added_content":false,"tags":[],"delta":2486},{"id":"806094677603385344","post_url":"https://www.tumblr.com/blog/view/goodtransgirl/806094677603385344","notes":534,"npd":0,"is_reblog":true,"added_content":false,"tags":[],"delta":0},{"id":"806086372679139328","post_url":"https://www.tumblr.com/blog/view/goodtransgirl/806086372679139328","notes":80618,"npd":46.8,"is_reblog":true,"added_content":false,"tags":[],"delta":498},{"id":"806078199701389312","post_url":"https://www.tumblr.com/blog/view/goodtransgirl/806078199701389312","notes":33190,"npd":0.94,"is_reblog":true,"added_content":false,"tags":[],"delta":10},{"id":"806069893127618561","post_url":"https://www.tumblr.com/blog/view/goodtransgirl/806069893127618561","notes":1305,"npd":0,"is_reblog":true,"added_content":false,"tags":[],"delta":0},{"id":"806061723535769600","post_url":"https://www.tumblr.com/blog/view/goodtransgirl/806061723535769600","notes":9663,"npd":4.79,"is_reblog":true,"added_content":false,"tags":[],"delta":51},{"id":"806045246270193664","post_url":"https://www.tumblr.com/blog/view/goodtransgirl/806045246270193664","notes":21427,"npd":14.85,"is_reblog":true,"added_content":false,"tags":[],"delta":158},{"id":"806036920204410881","post_url":"https://www.tumblr.com/blog/view/goodtransgirl/806036920204410881","notes":592,"npd":0,"is_reblog":true,"added_content":false,"tags":[],"delta":0},{"id":"806028766171267072","post_url":"https://www.tumblr.com/blog/view/goodtransgirl/806028766171267072","notes":22227,"npd":20.11,"is_reblog":true,"added_content":false,"tags":[],"delta":214},{"id":"806020567881891840","post_url":"https://www.tumblr.com/blog/view/goodtransgirl/806020567881891840","notes":6640,"npd":9.77,"is_reblog":true,"added_content":false,"tags":[],"delta":104},{"id":"806012265333669888","post_url":"https://www.tumblr.com/blog/view/goodtransgirl/806012265333669888","notes":419,"npd":0.09,"is_reblog":true,"added_content":false,"tags":[],"delta":1},{"id":"806004087200022528","post_url":"https://www.tumblr.com/blog/view/goodtransgirl/806004087200022528","notes":7308,"npd":4.98,"is_reblog":true,"added_content":false,"tags":[],"delta":53},{"id":"805995808706150400","post_url":"https://www.tumblr.com/blog/view/goodtransgirl/805995808706150400","notes":3219,"npd":5.73,"is_reblog":true,"added_content":false,"tags":[],"delta":61},{"id":"805987606734176256","post_url":"https://www.tumblr.com/blog/view/goodtransgirl/805987606734176256","notes":1711,"npd":0,"is_reblog":true,"added_content":false,"tags":[],"delta":0},{"id":"805979299285975040","post_url":"https://www.tumblr.com/blog/view/goodtransgirl/805979299285975040","notes":3282,"npd":2.73,"is_reblog":true,"added_content":false,"tags":[],"delta":29},{"id":"805971129980403712","post_url":"https://www.tumblr.com/blog/view/goodtransgirl/805971129980403712","notes":325,"npd":0,"is_reblog":true,"added_content":false,"tags":[],"delta":0},{"id":"805954631432847360","post_url":"https://www.tumblr.com/blog/view/goodtransgirl/805954631432847360","notes":913,"npd":2.44,"is_reblog":true,"added_content":false,"tags":[],"delta":26},{"id":"805946340578328576","post_url":"https://www.tumblr.com/blog/view/goodtransgirl/805946340578328576","notes":3853,"npd":5.45,"is_reblog":true,"added_content":false,"tags":[],"delta":58},{"id":"805938148452564992","post_url":"https://www.tumblr.com/blog/view/goodtransgirl/805938148452564992","notes":33641,"npd":13.34,"is_reblog":true,"added_content":false,"tags":[],"delta":142},{"id":"805929971651690496","post_url":"https://www.tumblr.com/blog/view/goodtransgirl/805929971651690496","notes":812,"npd":0.28,"is_reblog":true,"added_content":false,"tags":[],"delta":3},{"id":"805921661393272833","post_url":"https://www.tumblr.com/blog/view/goodtransgirl/805921661393272833","notes":23597,"npd":4.42,"is_reblog":true,"added_content":false,"tags":[],"delta":47},{"id":"805913490707595264","post_url":"https://www.tumblr.com/blog/view/goodtransgirl/805913490707595264","notes":2041,"npd":0.47,"is_reblog":true,"added_content":false,"tags":[],"delta":5},{"id":"805905176635539456","post_url":"https://www.tumblr.com/blog/view/goodtransgirl/805905176635539456","notes":1982,"npd":2.35,"is_reblog":true,"added_content":false,"tags":[],"delta":25},{"id":"805897004026920960","post_url":"https://www.tumblr.com/blog/view/goodtransgirl/805897004026920960","notes":3347,"npd":2.16,"is_reblog":true,"added_content":false,"tags":[],"delta":23},{"id":"805896313861521408","post_url":"https://www.tumblr.com/blog/view/goodtransgirl/805896313861521408","notes":63199,"npd":13.63,"is_reblog":true,"added_content":false,"tags":[],"delta":145},{"id":"805895667332595712","post_url":"https://www.tumblr.com/blog/view/goodtransgirl/805895667332595712","notes":62,"npd":0,"is_reblog":true,"added_content":false,"tags":[],"delta":0},{"id":"805888694826532864","post_url":"https://www.tumblr.com/blog/view/goodtransgirl/805888694826532864","notes":2509,"npd":0.85,"is_reblog":true,"added_content":false,"tags":[],"delta":9},{"id":"805880520211873792","post_url":"https://www.tumblr.com/blog/view/goodtransgirl/805880520211873792","notes":1543,"npd":0.75,"is_reblog":true,"added_content":false,"tags":[],"delta":8},{"id":"805864036860362752","post_url":"https://www.tumblr.com/blog/view/goodtransgirl/805864036860362752","notes":3106,"npd":0,"is_reblog":true,"added_content":false,"tags":[],"delta":0},{"id":"805855734954967040","post_url":"https://www.tumblr.com/blog/view/goodtransgirl/805855734954967040","notes":592,"npd":0,"is_reblog":true,"added_content":false,"tags":["keysmash","i am so gay"],"delta":0},{"id":"805854537793536000","post_url":"https://www.tumblr.com/blog/view/goodtransgirl/805854537793536000","notes":11145,"npd":1.69,"is_reblog":true,"added_content":false,"tags":[],"delta":18},{"id":"805851435147362304","post_url":"https://www.tumblr.com/blog/view/goodtransgirl/805851435147362304","notes":23383,"npd":141.42,"is_reblog":true,"added_content":false,"tags":[],"delta":1505},{"id":"805848960403128320","post_url":"https://www.tumblr.com/blog/view/goodtransgirl/805848960403128320","notes":8064,"npd":1.03,"is_reblog":true,"added_content":false,"tags":[],"delta":11},{"id":"805845210591592448","post_url":"https://www.tumblr.com/blog/view/goodtransgirl/805845210591592448","notes":31432,"npd":80.25,"is_reblog":true,"added_content":false,"tags":[],"delta":854},{"id":"805845099195006976","post_url":"https://www.tumblr.com/blog/view/goodtransgirl/805845099195006976","notes":494,"npd":0,"is_reblog":true,"added_content":false,"tags":[],"delta":0},{"id":"805845019643854848","post_url":"https://www.tumblr.com/blog/view/goodtransgirl/805845019643854848","notes":40782,"npd":76.4,"is_reblog":true,"added_content":false,"tags":[],"delta":813},{"id":"805844960777781248","post_url":"https://www.tumblr.com/blog/view/goodtransgirl/805844960777781248","notes":10923,"npd":4.32,"is_reblog":true,"added_content":false,"tags":[],"delta":46},{"id":"805832634390413312","post_url":"https://www.tumblr.com/blog/view/goodtransgirl/805832634390413312","notes":7536,"npd":11.28,"is_reblog":true,"added_content":false,"tags":[],"delta":120},{"id":"805829330894798848","post_url":"https://www.tumblr.com/blog/view/goodtransgirl/805829330894798848","notes":2194,"npd":0.28,"is_reblog":true,"added_content":false,"tags":[],"delta":3},{"id":"805829083517927424","post_url":"https://www.tumblr.com/blog/view/goodtransgirl/805829083517927424","notes":5235,"npd":0.47,"is_reblog":true,"added_content":false,"tags":[],"delta":5},{"id":"805828996356030464","post_url":"https://www.tumblr.com/blog/view/goodtransgirl/805828996356030464","notes":60876,"npd":120.47,"is_reblog":true,"added_content":false,"tags":[],"delta":1282},{"id":"805828926019665920","post_url":"https://www.tumblr.com/blog/view/goodtransgirl/805828926019665920","notes":552,"npd":0,"is_reblog":true,"added_content":false,"tags":[],"delta":0},{"id":"805828662336339968","post_url":"https://www.tumblr.com/blog/view/goodtransgirl/805828662336339968","notes":3167,"npd":1.97,"is_reblog":true,"added_content":false,"tags":[],"delta":21},{"id":"805825552865968128","post_url":"https://www.tumblr.com/blog/view/goodtransgirl/805825552865968128","notes":9681,"npd":0.38,"is_reblog":true,"added_content":false,"tags":[],"delta":4},{"id":"805824101271928832","post_url":"https://www.tumblr.com/blog/view/goodtransgirl/805824101271928832","notes":18046,"npd":28.19,"is_reblog":true,"added_content":false,"tags":[],"delta":300},{"id":"805824088622940160","post_url":"https://www.tumblr.com/blog/view/goodtransgirl/805824088622940160","notes":1989,"npd":0,"is_reblog":true,"added_content":false,"tags":[],"delta":0},{"id":"805824045421559808","post_url":"https://www.tumblr.com/blog/view/goodtransgirl/805824045421559808","notes":13598,"npd":40.22,"is_reblog":true,"added_content":false,"tags":[],"delta":428}]}