{"exported_at":"2026-04-03T14:02:18.999Z","blog":"goodtransgirl.tumblr.com","page":6,"total_pages":6,"total_rows":1532,"posts":[{"id":"805971129980403712","post_url":"https://www.tumblr.com/blog/view/goodtransgirl/805971129980403712","notes":325,"npd":null,"is_reblog":true,"delta":0},{"id":"805954631432847360","post_url":"https://www.tumblr.com/blog/view/goodtransgirl/805954631432847360","notes":893,"npd":null,"is_reblog":true,"delta":6},{"id":"805946340578328576","post_url":"https://www.tumblr.com/blog/view/goodtransgirl/805946340578328576","notes":3840,"npd":null,"is_reblog":true,"delta":45},{"id":"805938148452564992","post_url":"https://www.tumblr.com/blog/view/goodtransgirl/805938148452564992","notes":33592,"npd":null,"is_reblog":true,"delta":93},{"id":"805929971651690496","post_url":"https://www.tumblr.com/blog/view/goodtransgirl/805929971651690496","notes":811,"npd":null,"is_reblog":true,"delta":2},{"id":"805921661393272833","post_url":"https://www.tumblr.com/blog/view/goodtransgirl/805921661393272833","notes":23586,"npd":null,"is_reblog":true,"delta":36},{"id":"805913490707595264","post_url":"https://www.tumblr.com/blog/view/goodtransgirl/805913490707595264","notes":2040,"npd":null,"is_reblog":true,"delta":4},{"id":"805905176635539456","post_url":"https://www.tumblr.com/blog/view/goodtransgirl/805905176635539456","notes":1975,"npd":null,"is_reblog":true,"delta":18},{"id":"805897004026920960","post_url":"https://www.tumblr.com/blog/view/goodtransgirl/805897004026920960","notes":3337,"npd":null,"is_reblog":true,"delta":13},{"id":"805896313861521408","post_url":"https://www.tumblr.com/blog/view/goodtransgirl/805896313861521408","notes":63144,"npd":null,"is_reblog":true,"delta":90},{"id":"805895667332595712","post_url":"https://www.tumblr.com/blog/view/goodtransgirl/805895667332595712","notes":62,"npd":null,"is_reblog":true,"delta":0},{"id":"805888694826532864","post_url":"https://www.tumblr.com/blog/view/goodtransgirl/805888694826532864","notes":2508,"npd":null,"is_reblog":true,"delta":8},{"id":"805880520211873792","post_url":"https://www.tumblr.com/blog/view/goodtransgirl/805880520211873792","notes":1542,"npd":null,"is_reblog":true,"delta":7},{"id":"805864036860362752","post_url":"https://www.tumblr.com/blog/view/goodtransgirl/805864036860362752","notes":3106,"npd":null,"is_reblog":true,"delta":0},{"id":"805855734954967040","post_url":"https://www.tumblr.com/blog/view/goodtransgirl/805855734954967040","notes":592,"npd":null,"is_reblog":true,"delta":0},{"id":"805854537793536000","post_url":"https://www.tumblr.com/blog/view/goodtransgirl/805854537793536000","notes":11139,"npd":null,"is_reblog":true,"delta":12},{"id":"805851435147362304","post_url":"https://www.tumblr.com/blog/view/goodtransgirl/805851435147362304","notes":22561,"npd":null,"is_reblog":true,"delta":683},{"id":"805848960403128320","post_url":"https://www.tumblr.com/blog/view/goodtransgirl/805848960403128320","notes":8061,"npd":null,"is_reblog":true,"delta":8},{"id":"805845210591592448","post_url":"https://www.tumblr.com/blog/view/goodtransgirl/805845210591592448","notes":31058,"npd":null,"is_reblog":true,"delta":480},{"id":"805845099195006976","post_url":"https://www.tumblr.com/blog/view/goodtransgirl/805845099195006976","notes":494,"npd":null,"is_reblog":true,"delta":0},{"id":"805845019643854848","post_url":"https://www.tumblr.com/blog/view/goodtransgirl/805845019643854848","notes":40397,"npd":null,"is_reblog":true,"delta":428},{"id":"805844960777781248","post_url":"https://www.tumblr.com/blog/view/goodtransgirl/805844960777781248","notes":10902,"npd":null,"is_reblog":true,"delta":25},{"id":"805832634390413312","post_url":"https://www.tumblr.com/blog/view/goodtransgirl/805832634390413312","notes":7425,"npd":null,"is_reblog":true,"delta":9},{"id":"805829330894798848","post_url":"https://www.tumblr.com/blog/view/goodtransgirl/805829330894798848","notes":2193,"npd":null,"is_reblog":true,"delta":2},{"id":"805829083517927424","post_url":"https://www.tumblr.com/blog/view/goodtransgirl/805829083517927424","notes":5233,"npd":null,"is_reblog":true,"delta":3},{"id":"805828996356030464","post_url":"https://www.tumblr.com/blog/view/goodtransgirl/805828996356030464","notes":59996,"npd":null,"is_reblog":true,"delta":402},{"id":"805828926019665920","post_url":"https://www.tumblr.com/blog/view/goodtransgirl/805828926019665920","notes":552,"npd":null,"is_reblog":true,"delta":0},{"id":"805828662336339968","post_url":"https://www.tumblr.com/blog/view/goodtransgirl/805828662336339968","notes":3161,"npd":null,"is_reblog":true,"delta":15},{"id":"805825552865968128","post_url":"https://www.tumblr.com/blog/view/goodtransgirl/805825552865968128","notes":9680,"npd":null,"is_reblog":true,"delta":3},{"id":"805824101271928832","post_url":"https://www.tumblr.com/blog/view/goodtransgirl/805824101271928832","notes":17896,"npd":null,"is_reblog":true,"delta":150},{"id":"805824088622940160","post_url":"https://www.tumblr.com/blog/view/goodtransgirl/805824088622940160","notes":1989,"npd":null,"is_reblog":true,"delta":0},{"id":"805824045421559808","post_url":"https://www.tumblr.com/blog/view/goodtransgirl/805824045421559808","notes":13493,"npd":null,"is_reblog":true,"delta":323}]}